Info: Start Nativelink Simulation process
Info: NativeLink has detected a mixed Verilog and VHDL design -- systemverilog simulation models will be used

========= EDA Simulation Settings =====================

Sim Mode              :  RTL
Family                :  cyclonev
Quartus root          :  c:/intelfpga_lite/18.1/quartus/bin64/
Quartus sim root      :  c:/intelfpga_lite/18.1/quartus/eda/sim_lib
Simulation Tool       :  modelsim-altera
Simulation Language   :  systemverilog
Simulation Mode       :  GUI
Sim Output File       :  
Sim SDF file          :  
Sim dir               :  simulation\modelsim

=======================================================

Info: Starting NativeLink simulation with ModelSim-Altera software
Sourced NativeLink script c:/intelfpga_lite/18.1/quartus/common/tcl/internal/nativelink/modelsim.tcl
Warning: File NAND_run_msim_rtl_systemverilog.do already exists - backing up current file as NAND_run_msim_rtl_systemverilog.do.bak2
Info: Spawning ModelSim-Altera Simulation software 
Info: NativeLink simulation flow was successful
