﻿ADD 001000 Rc Ra Rb 0;
ADDC 001001 Rc Ra LT;
SUB 010000 Rc Ra Rb 0;
SUBC 010001 Rc Ra LT;
MUL 011000 Rc Ra Rb 0;
MULC 011001 Rc Ra LT;
DIV 100000 Rc Ra Rb 0;
DIVC 100001 Rc Ra LT;
CMPREQ 101000 Rc Ra Rb 0;
CMPREQC 101001 Rc Ra LT;
CMPRLT 110000 Rc Ra Rb 0;
CMPRLTC 110001 Rc Ra LT;
CMPRLE 111000 Rc Ra Rb 0;
CMPRLEC 111001 Rc Ra LT;
AND 001010 Rc Ra Rb 0;
ANDC 001011 Rc Ra LT;
OR 010010 Rc Ra Rb 0;
ORC 010011 Rc Ra LT;
XOR 011010 Rc Ra Rb 0;
XORC 011011 Rc Ra LT;
XNOR 100010 Rc Ra Rb 0;
XNORC 100011 Rc Ra LT;
SHL 101010 Rc Ra Rb 0;
SHLC 101011 Rc Ra LT;
SHR 110010 Rc Ra Rb 0;
SHRC 110011 Rc Ra LT;
LD 000100 Rc Ra LT;
ST 001100 Rc Ra LT;
BEQ 000110 Rc Ra LT;
BNE 001110 Rc Ra LT;
JMP 010110 Rc Ra LT;